…
### Data Exploration

Next, we will explore a few aspects of our data. Using `distinct()`, we
can get the number of unique stations, accounting for stations with the
same name along different lines .

``` r
distinct(transit_data, line, station_name) %>% 
  arrange(station_name)
```

    ## # A tibble: 465 × 2
    ##    line             station_name               
    ##    <chr>            <chr>                      
    ##  1 8 Avenue         103rd St                   
    ##  2 Broadway-7th Ave 103rd St                   
    ##  3 Flushing         103rd St                   
    ##  4 Lexington        103rd St                   
    ##  5 Broadway Jamaica 104th St-102nd St          
    ##  6 Liberty          104th St-Oxford Av         
    ##  7 Lexington        110th St                   
    ##  8 Lenox            110th St-Central Park North
    ##  9 Broadway Jamaica 111th St                   
    ## 10 Flushing         111th St                   
    ## # … with 455 more rows
…
